{
    "name": "SwiftFramework.Utils.Editor",
    "references": [
        "SwiftFramework.Core",
        "SwiftFramework.Core.Editor",
        "SwiftFramework.Utils",
        "Unity.TextMeshPro"
    ],
    "includePlatforms": [
        "Editor"
    ],
    "excludePlatforms": [],
    "allowUnsafeCode": false,
    "overrideReferences": false,
    "precompiledReferences": [],
    "autoReferenced": true,
    "defineConstraints": [],
    "versionDefines": [],
    "noEngineReferences": false
}