{
    "name": "SwiftFramework.UnityIAPManager.Editor",
    "references": [
        "SwiftFramework.UnityIAPManager",
        "SwiftFramework.Core",
        "SwiftFramework.Core.Editor"
    ],
    "includePlatforms": [
        "Editor"
    ],
    "excludePlatforms": [],
    "allowUnsafeCode": false,
    "overrideReferences": false,
    "precompiledReferences": [],
    "autoReferenced": true,
    "defineConstraints": [
        "UNITY_PURCHASING",
        "ENABLE_IAP"
    ],
    "versionDefines": []
}