{
    "name": "SwiftFramework.IdleMiner",
    "references": [
        "SwiftFramework.Core",
        "SwiftFramework.Utils"
    ],
    "includePlatforms": [],
    "excludePlatforms": [],
    "allowUnsafeCode": false,
    "overrideReferences": false,
    "precompiledReferences": [],
    "autoReferenced": true,
    "defineConstraints": [],
    "versionDefines": [],
    "noEngineReferences": false
}