{
    "name": "SwiftFrameworl.FirebaseWrapper",
    "references": [
        "SwiftFramework.Core"
    ],
    "optionalUnityReferences": [],
    "includePlatforms": [],
    "excludePlatforms": [],
    "allowUnsafeCode": false,
    "overrideReferences": false,
    "precompiledReferences": [],
    "autoReferenced": true,
    "defineConstraints": [
        "ENABLE_FIREBASE"
    ],
    "versionDefines": []
}